<svg width="608" height="105" viewBox="0 0 608 105" fill="none" xmlns="http://www.w3.org/2000/svg">
<g filter="url(#filter0_b)">
<path d="M1.04186 120.718C-1.0419 130.659 6.5445 140 16.7015 140H591.298C601.455 140 609.042 130.659 606.958 120.718L584.32 12.7175C582.767 5.30713 576.232 0 568.66 0H39.3397C31.7683 0 25.2334 5.30713 23.6801 12.7175L1.04186 120.718Z" fill="black" fill-opacity="0.6"/>
<path d="M16.7015 139.5H591.298C601.138 139.5 608.487 130.45 606.469 120.82L583.831 12.8201C582.326 5.64128 575.995 0.5 568.66 0.5H39.3397C32.0049 0.5 25.6742 5.64128 24.1694 12.8201L1.53123 120.82C-0.48742 130.45 6.8619 139.5 16.7015 139.5Z" stroke="url(#paint0_linear)"/>
</g>
<defs>
<filter id="filter0_b" x="-11.3044" y="-12" width="630.609" height="164" filterUnits="userSpaceOnUse" color-interpolation-filters="sRGB">
<feFlood flood-opacity="0" result="BackgroundImageFix"/>
<feGaussianBlur in="BackgroundImage" stdDeviation="6"/>
<feComposite in2="SourceAlpha" operator="in" result="effect1_backgroundBlur"/>
<feBlend mode="normal" in="SourceGraphic" in2="effect1_backgroundBlur" result="shape"/>
</filter>
<linearGradient id="paint0_linear" x1="143.729" y1="-19.25" x2="143.729" y2="140" gradientUnits="userSpaceOnUse">
<stop stop-color="white"/>
<stop offset="1" stop-color="white" stop-opacity="0"/>
</linearGradient>
</defs>
</svg>